Using Map Tiles to Visualize Spatial Data
…
Taylor Arnold

Introduction

This vignette introduces the core functions in the ggmaptile R package. To start, we load the package into R. We all load dplyr to assist with processing our data.

library(ggplot2)
library(ggmaptile)
library(dplyr)

There are two datasets included with the package. The first gives the location of the largest 58 cities in France. We will start by using this dataset to illustrate how the package works.

french_city

## # A tibble: 58 x 5
##    city         lat    lng population admin_name                
##    <chr>      <dbl>  <dbl>      <dbl> <chr>                     
##  1 Paris       48.9  2.33     9904000 Ile-de-France             
##  2 Lyon        45.8  4.83     1423000 Auvergne-Rhone-Alpes      
##  3 Marseille   43.3  5.38     1400000 Provence-Alpes-Cote d'Azur
##  4 Lille       50.6  3.08     1044000 Hauts-de-France           
##  5 Nice        43.7  7.26      927000 Provence-Alpes-Cote d'Azur
##  6 Toulouse    43.6  1.45      847000 Occitanie                 
##  7 Bordeaux    44.8 -0.595     803000 Nouvelle-Aquitaine        
##  8 Rouen       49.4  1.08      532559 Normandie                 
##  9 Strasbourg  48.6  7.75      439972 Grand Est                 
## 10 Nantes      47.2 -1.59      438537 Pays de la Loire          
## # … with 48 more rows
…
Combining these options can produce a myriad of interesting plots to help visualize and communicate your spatial data. One final option, which requires a bit more discussion, is included in the section below.

Aspect ratio and facets

One of the more subtle issues with grabbing map tiles to visualize a dataset is determining what tiles to use to cover a given set of data. At the root of the difficulty is that there is generally a fixed aspect ratio that must be preserved to avoid distorting the tile images. This means that the number of tiles depends on the desired aspect ratio of plotting device, which is difficult to always know ahead of time when grabbing map tiles. By default, the function stat_maptiles grabs just enough tiles to cover the given data and constrains the plot to fit these tiles with the desired aspect ratio. While often, particularly when working data roughly distributed in a square area as with the major France cities, the default behavior works fine. Here, we see how to modify this behavior.

The second dataset provided in the package provides information about the Parisian metro system. It is a good dataset to illustrate the issue with aspect ratios because metro lines tend to extend in one direction (north-south or east-west) and offer several different ways that we may want to control the dimensions of the output.

paris_metro

## # A tibble: 371 x 7
##    nom_gare                      ligne ligne_couleur   lon   lat lon_fin lat_fin
##    <chr>                         <int> <chr>         <dbl> <dbl>   <dbl>   <dbl>
##  1 La Defense - Grande Arche         1 #ffbe00        2.24  48.9    2.25    48.9
##  2 Esplanade de la Defense           1 #ffbe00        2.25  48.9    2.26    48.9
##  3 Pont de Neuilly (Avenue de M…     1 #ffbe00        2.26  48.9    2.27    48.9
##  4 Les Sablons (Jardin d'acclim…     1 #ffbe00        2.27  48.9    2.29    48.9
##  5 Argentine                         1 #ffbe00        2.29  48.9    2.30    48.9
##  6 Charles De Gaulle-Etoile          1 #ffbe00        2.30  48.9    2.30    48.9
##  7 George-V                          1 #ffbe00        2.30  48.9    2.31    48.9
##  8 Franklin D.Roosevelt              1 #ffbe00        2.31  48.9    2.31    48.9
##  9 Champs-Elysees-Clemenceau         1 #ffbe00        2.31  48.9    2.32    48.9
## 10 Concorde                          1 #ffbe00        2.32  48.9    2.33    48.9
## # … with 361 more rows
…
